Lecture 4 - Tibbles and Data Visualization (part I)
…
```r
library(tidyverse)

data(iris)

as_tibble(iris)
```

---

##Tibbles - Iris data

```
## # A tibble: 150 x 5
##    Sepal.Length Sepal.Width Petal.Length Petal.Width Species
##           <dbl>       <dbl>        <dbl>       <dbl> <fct>  
##  1          5.1         3.5          1.4         0.2 setosa 
##  2          4.9         3            1.4         0.2 setosa 
##  3          4.7         3.2          1.3         0.2 setosa 
##  4          4.6         3.1          1.5         0.2 setosa 
##  5          5           3.6          1.4         0.2 setosa 
##  6          5.4         3.9          1.7         0.4 setosa 
##  7          4.6         3.4          1.4         0.3 setosa 
##  8          5           3.4          1.5         0.2 setosa 
##  9          4.4         2.9          1.4         0.2 setosa 
## 10          4.9         3.1          1.5         0.1 setosa 
## # … with 140 more rows
```
…
- Tibbles never changes the type of the inputs (e.g. it never converts strings to factors!)

- Tibbles never changes the names of variables, and it never creates row names.

- Tibbles have a refined print method that shows only the first 10 rows, and all the columns that fit on screen. 

- We can use `print()` to control the number of rows `(n)` and the width of the display. Using `width = Inf` will display all columns:

```r
print(as_tibble(iris), n = 2, width=Inf)
```

```
## # A tibble: 150 x 5
##   Sepal.Length Sepal.Width Petal.Length Petal.Width Species
##          <dbl>       <dbl>        <dbl>       <dbl> <fct>  
## 1          5.1         3.5          1.4         0.2 setosa 
## 2          4.9         3            1.4         0.2 setosa 
## # … with 148 more rows
```
…
